…
  # Generate the synthetic control
  generate_control()

subsah_out_imex %>% plot_trends() 

<img src="{{< blogdown/postref >}}index.en_files/figure-html/unnamed-chunk-7-1.png" width="672" />
Although not perfect, this model is a more convincing.

We can compare the regression weights for the model that predicted GDP in Mali with those of the model that predicted GDP for the synthetic control and observe that they are reasonably similar.

subsah_out_imex %>% grab_balance_table()

## # A tibble: 21 x 4
##    variable          MLI synthetic_MLI donor_sample
##    <chr>           <dbl>         <dbl>        <dbl>
##  1 civwar         0.0625        0.0845       0.188 
##  2 civwarend      0.0625        0.0369       0.0257
##  3 eximdiff       0.350         0.0925       0.0133
##  4 eximdiff_lag1  0.371         0.0988       0.0284
##  5 eximdiff_lag2  0.419         0.102        0.0261
##  6 imfadj         0.125         0.127        0.0772
##  7 imfadj_lag1    0.0625        0.123        0.0662
##  8 imfadj_lag2    0.125         0.127        0.0772
##  9 ki            21.6          19.2         21.9   
## 10 lag1           6.54          6.56         6.98  
## # ... with 11 more rows
…
