…
This means that \(\Delta_{T_{X}}\) has been set to exactly 0 by design for \(X\) = teacher effects. There can of course still be other confounders \(U\). The expected value of the difference in \(U\) between the two groups is 0, but not that many units have been assigned randomly. There are 787 students in the study, but only 54 classes have been assigned randomly to the two conditions. We will explore the consequences in part 2, where we turn to inference.

The data

Let’s confirm these numbers by looking at the structure of the data set that is shared publicly here.

# Classes are distributed per teacher
rohrer %>% group_by(School,Teacher, Class, Group) %>% 
  summarize(n = n()) %>% 
  print(n=10)

## `summarise()` regrouping output by 'School', 'Teacher', 'Class' (override with `.groups` argument)

## # A tibble: 54 x 5
## # Groups:   School, Teacher, Class [54]
##    School Teacher Class Group     n
##    <chr>    <dbl> <dbl> <chr> <int>
##  1 A            1     1 inter     7
##  2 A            1     2 block    20
##  3 A            1     3 block    19
##  4 A            1     4 inter     4
##  5 A            2     1 inter    19
##  6 A            2     2 block    12
##  7 A            2     3 inter    17
##  8 A            2     4 block    13
##  9 A            3     1 block     6
## 10 A            3     2 inter    14
## # ... with 44 more rows
…
