…
star_stud %>% count(hsgrdcol)

## # A tibble: 2 x 2
##   hsgrdcol     n
##   <fct>    <int>
## 1 YES       3872
## 2 NO        1120

It is recorded for about 5000 students whether they eventually completed high school or not. Of these students, well over 20% didn’t. That is a stunningly high number.

After omitting missing values on the outcome variable, we are left with a enormous amount of missing values.

miss_var_summary(star_stud)

## # A tibble: 29 x 3
##    variable      n_miss pct_miss
##    <chr>          <int>    <dbl>
##  1 gkmotivraw      2536     50.8
##  2 gkselfconcraw   2536     50.8
##  3 GKWHITE         2283     45.7
##  4 gktcareer       2185     43.8
##  5 gktreadss       2144     42.9
##  6 gktlistss       2125     42.6
##  7 gkwordskillss   2123     42.5
##  8 gktmathss       2112     42.3
##  9 gktrace         1975     39.6
## 10 gkabsent        1971     39.5
## # ... with 19 more rows
…
