…
doParallel::registerDoParallel()
set.seed(111)
tune_forest <- tune_grid(
  randfor_wf,
  resamples = star_folds,
  grid=20,
  control= control_grid(save_pred = T),
  metrics = star_metrics
)

tune_forest %>% 
  collect_metrics() 

## # A tibble: 80 x 8
##     mtry min_n .metric  .estimator  mean     n std_err .config              
##    <int> <int> <chr>    <chr>      <dbl> <int>   <dbl> <chr>                
##  1    15    15 accuracy binary     0.722     5  0.0110 Preprocessor1_Model01
##  2    15    15 roc_auc  binary     0.695     5  0.0131 Preprocessor1_Model01
##  3    15    15 sens     binary     0.808     5  0.0118 Preprocessor1_Model01
##  4    15    15 spec     binary     0.426     5  0.0113 Preprocessor1_Model01
##  5    59    40 accuracy binary     0.718     5  0.0100 Preprocessor1_Model02
##  6    59    40 roc_auc  binary     0.680     5  0.0144 Preprocessor1_Model02
##  7    59    40 sens     binary     0.806     5  0.0115 Preprocessor1_Model02
##  8    59    40 spec     binary     0.413     5  0.0149 Preprocessor1_Model02
##  9    22    28 accuracy binary     0.720     5  0.0110 Preprocessor1_Model03
## 10    22    28 roc_auc  binary     0.690     5  0.0130 Preprocessor1_Model03
## # ... with 70 more rows
…
<img src="{{< blogdown/postref >}}index.en_files/figure-html/unnamed-chunk-12-1.png" width="672" />
To get a better understanding of the meaning of this curve, we print out some of the thresholds that determine whether an observation is labeled YES (graduation) or NO (drop out).

final_res %>% collect_predictions() %>% 
  roc_curve(truth=hsgrdcol,.pred_YES) %>% 
  arrange(desc(.threshold))

## # A tibble: 715 x 3
##    .threshold specificity sensitivity
##         <dbl>       <dbl>       <dbl>
##  1    Inf               1     0      
##  2      0.918           1     0.00129
##  3      0.916           1     0.00258
##  4      0.915           1     0.00387
##  5      0.914           1     0.00516
##  6      0.913           1     0.00645
##  7      0.912           1     0.00774
##  8      0.911           1     0.00903
##  9      0.910           1     0.0103 
## 10      0.908           1     0.0116 
## # ... with 705 more rows
…
