…
Schakel <- remove_labels(Schakel)

We note that the researchers were able to collect information on a total of 305
policy proposals that span 33 consecutive years, in the period 1979 - 2012.

Schakel %>% summarize(years = n_distinct(year))

## # A tibble: 1 x 1
##   years
##   <int>
## 1    33

Schakel %>% arrange(desc(year))

## # A tibble: 305 x 45
##       id  year  data survey spending  pass nocode  iall   i05   i10   i20   i30
##    <dbl> <dbl> <dbl>  <dbl>    <dbl> <dbl>  <dbl> <dbl> <dbl> <dbl> <dbl> <dbl>
##  1   250  2012    16      8        1     0     NA  43.1  44.8  44.1  43.0  42.2
##  2   251  2012    16      8        1     1     NA  48.2  37.7  40.3  44.9  48.5
##  3   252  2012    16      8        1     0     NA  76.6  78.5  78.0  77.3  76.6
##  4   253  2012    16      8        1     1     NA  51.6  62.4  57.4  49.2  43.9
##  5   254  2012    35      2        0     1     NA  80.6  77.2  79.1  81.8  83.4
##  6   255  2012    35      2        0     0     NA  10.5  16.1  15.1  13.5  12.0
##  7   256  2012    57      1        0    NA      1  47.5  45.5  45.6  46.0  46.6
##  8   257  2012    58      1        0     0     NA  63.1  57.9  58.7  60.3  62.1
##  9   258  2012    58      1        0     0     NA  38.8  30.7  31.8  34.1  36.7
## 10   259  2012    58      1        0     0     NA  30.9  18.7  20.7  25.0  29.6
## # ... with 295 more rows, and 33 more variables: i50 <dbl>, i70 <dbl>,
## #   i80 <dbl>, i90 <dbl>, i95 <dbl>, i10e10 <dbl>, i10e50 <dbl>, i10e90 <dbl>,
## #   i50e10 <dbl>, i50e50 <dbl>, i50e90 <dbl>, i90e10 <dbl>, i90e50 <dbl>,
## #   i90e90 <dbl>, men <dbl>, women <dbl>, iallv <dbl>, i10v <dbl>, i50v <dbl>,
## #   i90v <dbl>, iallnv <dbl>, i10nv <dbl>, i50nv <dbl>, i90nv <dbl>,
## #   unempt <dbl>, growtht <dbl>, debtt <dbl>, lrgovt <dbl>, unempt4 <dbl>,
## #   growtht4 <dbl>, debtt4 <dbl>, lrgovt4 <dbl>, question <chr>
…
The column nocode is removed. It records the reason why pass is missing, and is therefore redundant. The eight columns to its right register whether subjects voted or not, specified for three income groups and all incomes (hence eight columns). Finally, there are missing values for pass itself (debt will not play a role in the analysis), which are crucial for the analysis. As the data set is arranged by year, we note that voting is missing more often in earlier years, whereas pass is missing more often for later years. Data are not missing randomly, then.

To put a number on the missing data, we produce a numeric summary that tells us that there are 58 polls that lack information on whether subjects voted or not and 14 that lack info on pass.

miss_var_summary(Schakel)

## # A tibble: 45 x 3
##    variable n_miss pct_miss
##    <chr>     <int>    <dbl>
##  1 nocode      291    95.4 
##  2 iallv        58    19.0 
##  3 i10v         58    19.0 
##  4 i50v         58    19.0 
##  5 i90v         58    19.0 
##  6 iallnv       58    19.0 
##  7 i10nv        58    19.0 
##  8 i50nv        58    19.0 
##  9 i90nv        58    19.0 
## 10 pass         14     4.59
## # ... with 35 more rows
…
