…
<img src="{{< blogdown/postref >}}index.en_files/figure-html/unnamed-chunk-12-1.png" width="672" />

Before we can turn to inference, we need to assess the nature of the missing data.

Missing data

The helpful naniar package allows us to quickly assess how many data points are missing per variable. Its absenteeism and chronotype scores that are well over the 10% missing threshold beyond which imputation is typically advised.

print(miss_var_summary(scores), n=28)

## # A tibble: 29 x 3
##    variable            n_miss pct_miss
##    <chr>                <int>    <dbl>
##  1 late_14_15           13453    32.9 
##  2 LA_later_14_15       13453    32.9 
##  3 removed_14_15        13453    32.9 
##  4 sick_freq_14_15      13453    32.9 
##  5 sick_dur_14_15       13453    32.9 
##  6 MSFsc                 7521    18.4 
##  7 MSFsc_groups          7521    18.4 
##  8 MSFsc_two_groups      7521    18.4 
##  9 SJL                   7521    18.4 
## 10 SD_w                  6435    15.7 
## 11 MCTQ_year             3717     9.09
## 12 age                   3717     9.09
## 13 sex                   3717     9.09
## 14 sick_days_no_consec   3411     8.34
## 15 stud_ID                  0     0   
## 16 Level                    0     0   
## 17 Class                    0     0   
## 18 Year                     0     0   
## 19 Topic                    0     0   
## 20 subject_area             0     0   
## 21 academic_year            0     0   
## 22 Period                   0     0   
## 23 Grade                    0     0   
## 24 years_in_sample          0     0   
## 25 late_13_14               0     0   
## 26 LA_later_13_14           0     0   
## 27 removed_13_14            0     0   
## 28 sick_freq_13_14          0     0   
## # ... with 1 more row
…
