…
library(haven)
library(tidyverse)
library(estimatr)
library(plm)
library(naniar)
library(specr)

setwd("C:/R/edu/Policy and crime fix eff")

crime <- read_dta("JPR homicide.dta") %>% 
  mutate(name = as_factor(name))

miss_var_summary(crime)

## # A tibble: 32 x 3
##    variable         n_miss pct_miss
##    <chr>             <int>    <dbl>
##  1 robbery             967     77.9
##  2 robberyrate         967     77.9
##  3 theft               946     76.2
##  4 theftrate           946     76.2
##  5 giniwider           872     70.2
##  6 homrate             838     67.5
##  7 socialwelfareexp    645     51.9
##  8 homiciderate        598     48.1
##  9 humanrightsviol     338     27.2
## 10 polity              322     25.9
## # ... with 22 more rows
…
